module gitlab.com/osslate/osslate.net

go 1.19

require (
	github.com/pimoore/microdotblog-tufte v0.0.0-20220206003405-fa592ad1d7ea // indirect
	gitlab.com/osslate/microdotblog-tufte v0.0.0-20220206003405-fa592ad1d7ea // indirect
)
